{
    "next": "https://api.takk.cafe/api/v2/mobile/users/balance-fill-history/?fill_type=cashback&page=2&year=2022",
    "previous": null,
    "count": 21,
    "total_pages": 3,
    "page": 1,
    "results": [
        {
            "id": 85,
            "created_dt": 1670515622110,
            "fill_type": "cashback",
            "cashback": "0.30",
            "is_auto_fill": false,
            "amount_payout": "0.00",
            "amount_receipt": "0.00",
            "order": 7078,
            "tariff": null
        },
        {
            "id": 82,
            "created_dt": 1669486717883,
            "fill_type": "cashback",
            "cashback": "0.33",
            "is_auto_fill": false,
            "amount_payout": "0.00",
            "amount_receipt": "0.00",
            "order": 7070,
            "tariff": null
        },
        {
            "id": 81,
            "created_dt": 1669236578590,
            "fill_type": "cashback",
            "cashback": "0.18",
            "is_auto_fill": false,
            "amount_payout": "0.00",
            "amount_receipt": "0.00",
            "order": 7069,
            "tariff": null
        },
        {
            "id": 80,
            "created_dt": 1669236178205,
            "fill_type": "cashback",
            "cashback": "0.18",
            "is_auto_fill": false,
            "amount_payout": "0.00",
            "amount_receipt": "0.00",
            "order": 7068,
            "tariff": null
        },
        {
            "id": 79,
            "created_dt": 1669236097201,
            "fill_type": "cashback",
            "cashback": "0.18",
            "is_auto_fill": false,
            "amount_payout": "0.00",
            "amount_receipt": "0.00",
            "order": 7067,
            "tariff": null
        },
        {
            "id": 78,
            "created_dt": 1669235984566,
            "fill_type": "cashback",
            "cashback": "0.18",
            "is_auto_fill": false,
            "amount_payout": "0.00",
            "amount_receipt": "0.00",
            "order": 7066,
            "tariff": null
        },
        {
            "id": 77,
            "created_dt": 1669235827681,
            "fill_type": "cashback",
            "cashback": "0.18",
            "is_auto_fill": false,
            "amount_payout": "0.00",
            "amount_receipt": "0.00",
            "order": 7065,
            "tariff": null
        },
        {
            "id": 76,
            "created_dt": 1669235648204,
            "fill_type": "cashback",
            "cashback": "0.30",
            "is_auto_fill": false,
            "amount_payout": "0.00",
            "amount_receipt": "0.00",
            "order": 7064,
            "tariff": null
        },
        {
            "id": 75,
            "created_dt": 1669235261335,
            "fill_type": "cashback",
            "cashback": "0.19",
            "is_auto_fill": false,
            "amount_payout": "0.00",
            "amount_receipt": "0.00",
            "order": 7063,
            "tariff": null
        },
        {
            "id": 74,
            "created_dt": 1669234471945,
            "fill_type": "cashback",
            "cashback": "0.18",
            "is_auto_fill": false,
            "amount_payout": "0.00",
            "amount_receipt": "0.00",
            "order": 7062,
            "tariff": null
        }
    ]
}